{
  "host": "localhost",
  "port": 3030,
  "public": "../public/",
  "paginate": {
    "default": 10,
    "max": 50
  },
  "authentication": {
    "entity": "user",
    "service": "users",
    "secret": "aLFTyAOI3VpQP2cznseCOiGxVFY=",
    "authStrategies": [
      "jwt",
      "local"
    ],
    "jwtOptions": {
      "header": {
        "typ": "access"
      },
      "audience": "https://yourdomain.com",
      "issuer": "feathers",
      "algorithm": "HS256",
      "expiresIn": "1d"
    },
    "local": {
      "usernameField": "email",
      "passwordField": "password"
    },
    "oauth": {
      "redirect": "/",
      "google": {
        "key": "<google oauth key>",
        "secret": "<google oauth secret>",
        "scope": [
          "email",
          "profile",
          "openid"
        ]
      }
    }
  },
  "mongodb": "mongodb://some-mongo:27017/newapp"
}
